\relax 
\citation{url-collude}
\@writefile{toc}{\contentsline {title}{LinkFlow: Efficient Large-Scale Inter-App Privacy Leakage Detection}{1}}
\@writefile{toc}{\authcount {1}}
\@writefile{toc}{\contentsline {author}{No Author Given}{1}}
\@writefile{toc}{\contentsline {section}{\numberline {1}Introduction}{1}}
\citation{comdroid,lu2012chex,iccta,didfail}
\citation{lu2012chex}
\citation{iccta}
\citation{didfail}
\citation{url-intent}
\citation{hare}
\@writefile{toc}{\contentsline {section}{\numberline {2}Background}{3}}
\newlabel{sec:background}{{2}{3}}
\@writefile{toc}{\contentsline {subsection}{\numberline {2.1}Android ICC}{3}}
\citation{url-dropbox}
\citation{soundcomber}
\@writefile{toc}{\contentsline {subsection}{\numberline {2.2}Threat Model}{4}}
\@writefile{lof}{\contentsline {figure}{\numberline {1}{\ignorespaces  Malicious Collusion Attack}}{4}}
\newlabel{fig:1}{{1}{4}}
\citation{iccta}
\citation{didfail}
\citation{epicc}
\@writefile{toc}{\contentsline {subsection}{\numberline {2.3}Challenges of Effectively Detecting the ICC Leakages}{5}}
\@writefile{toc}{\contentsline {section}{\numberline {3}Overview}{6}}
\newlabel{sec:overview}{{3}{6}}
\@writefile{toc}{\contentsline {subsection}{\numberline {3.1}Intuition of LinkFlow: An Example}{6}}
\@writefile{lof}{\contentsline {figure}{\numberline {2}{\ignorespaces  Run LinkFlow on Example Apps}}{6}}
\newlabel{fig:3}{{2}{6}}
\citation{iccta,didfail,lu2012chex}
\@writefile{toc}{\contentsline {subsection}{\numberline {3.2}Architecture of LinkFlow}{7}}
\@writefile{lof}{\contentsline {figure}{\numberline {3}{\ignorespaces  Architecture of LinkFlow}}{7}}
\newlabel{fig:2}{{3}{7}}
\citation{spark}
\citation{reps1995precise}
\@writefile{toc}{\contentsline {section}{\numberline {4}LinkFlow Design}{8}}
\@writefile{toc}{\contentsline {subsection}{\numberline {4.1}Step 1: Taint Analysis For Single App}{8}}
\citation{susi}
\citation{pscout}
\@writefile{toc}{\contentsline {subsection}{\numberline {4.2}Step 2: ICC Resolution Analysis for Single App }{9}}
\@writefile{lot}{\contentsline {table}{\numberline {1}{\ignorespaces  The target ICC-Sources for the ICC-Sinks }}{10}}
\newlabel{table:1}{{1}{10}}
\@writefile{toc}{\contentsline {subsection}{\numberline {4.3}Step 3: ICC Link Analysis for All Apps}{10}}
\citation{flowdroid}
\citation{ic3}
\citation{url-mongo}
\citation{zhou-Mal}
\citation{url-virushare}
\newlabel{a:1}{{1}{11}}
\@writefile{loa}{\contentsline {algorithm}{\numberline {1}{\ignorespaces  The ICC match Algorithm}}{11}}
\@writefile{toc}{\contentsline {section}{\numberline {5}Performance Evaulation}{11}}
\citation{grace2012unsafe}
\citation{need}
\@writefile{lot}{\contentsline {table}{\numberline {2}{\ignorespaces  Analysis results}}{12}}
\newlabel{table:2}{{2}{12}}
\@writefile{toc}{\contentsline {subsection}{\numberline {5.1}Significance of cross-app ICC analysis}{12}}
\@writefile{toc}{\contentsline {subsection}{\numberline {5.2}Use LinkFlow to analysis real world apps.}{12}}
\@writefile{lof}{\contentsline {figure}{\numberline {4}{\ignorespaces  Components of InFlow Set and OutFlow Set}}{13}}
\newlabel{fig:6}{{4}{13}}
\@writefile{lot}{\contentsline {table}{\numberline {3}{\ignorespaces  The most used sources/sinks}}{14}}
\newlabel{table:3}{{3}{14}}
\@writefile{toc}{\contentsline {subsection}{\numberline {5.3}The performance of LinkFlow.}{14}}
\citation{scandroid,scandal,li2014detecting,leakminer,lu2012chex,tripp2014bayesian}
\citation{comdroid}
\citation{lu2012chex}
\citation{appsealer}
\citation{flowdroid}
\citation{amandroid}
\citation{soot}
\citation{dexpler}
\citation{didfail}
\citation{iccta}
\newlabel{fig:a}{{5(a)}{15}}
\newlabel{sub@fig:a}{{(a)}{15}}
\newlabel{fig:b}{{5(b)}{15}}
\newlabel{sub@fig:b}{{(b)}{15}}
\@writefile{lof}{\contentsline {figure}{\numberline {5}{\ignorespaces my caption}}{15}}
\@writefile{lof}{\contentsline {subfigure}{\numberline{(a)}{\ignorespaces {Flow And ICC Analysis}}}{15}}
\@writefile{lof}{\contentsline {subfigure}{\numberline{(b)}{\ignorespaces {Linkable Analysis}}}{15}}
\@writefile{toc}{\contentsline {subsection}{\numberline {5.4}Discussion and Limitation}{15}}
\@writefile{toc}{\contentsline {section}{\numberline {6}Related Work}{15}}
\citation{taintdroid}
\citation{bugiel2011xmandroid,bugiel2012towards}
\citation{copperdroid}
\citation{reina2013system,droidtrack}
\citation{flow1,flow2}
\citation{effectiveness}
\citation{permission1,permission2,permission3}
\citation{intentfuzzer}
\citation{pscout}
\@writefile{toc}{\contentsline {section}{\numberline {7}Conclusion}{16}}
\bibstyle{splncs03}
\bibdata{main}
\bibcite{url-collude}{1}
\bibcite{url-intent}{2}
\bibcite{url-mongo}{3}
\bibcite{url-virushare}{4}
\bibcite{url-dropbox}{5}
\bibcite{hare}{6}
\bibcite{flowdroid}{7}
\bibcite{pscout}{8}
\bibcite{dexpler}{9}
\bibcite{bugiel2011xmandroid}{10}
\bibcite{bugiel2012towards}{11}
\bibcite{comdroid}{12}
\bibcite{permission2}{13}
\bibcite{need}{14}
\bibcite{taintdroid}{15}
\bibcite{permission1}{16}
\bibcite{scandroid}{17}
\bibcite{grace2012unsafe}{18}
\bibcite{permission3}{19}
\bibcite{flow1}{20}
\bibcite{scandal}{21}
\bibcite{didfail}{22}
\bibcite{soot}{23}
\bibcite{spark}{24}
\bibcite{iccta}{25}
\bibcite{li2014detecting}{26}
\bibcite{lu2012chex}{27}
\bibcite{ic3}{28}
\bibcite{epicc}{29}
\bibcite{susi}{30}
\bibcite{reina2013system}{31}
\bibcite{reps1995precise}{32}
\bibcite{droidtrack}{33}
\bibcite{effectiveness}{34}
\bibcite{soundcomber}{35}
\bibcite{flow2}{36}
\bibcite{copperdroid}{37}
\bibcite{tripp2014bayesian}{38}
\bibcite{amandroid}{39}
\bibcite{intentfuzzer}{40}
\bibcite{leakminer}{41}
\bibcite{appsealer}{42}
\bibcite{zhou-Mal}{43}
