This is BibTeX, Version 0.99d (TeX Live 2014)
Capacity: max_strings=35307, hash_size=35307, hash_prime=30011
The top-level auxiliary file: main.aux
The style file: splncs03.bst
Database file #1: main.bib
Warning--to sort, need author, organization, or key in url-collude
Warning--to sort, need author, organization, or key in url-intent
Warning--to sort, need author, organization, or key in url-dropbox
Warning--to sort, need author, organization, or key in url-mongo
Warning--to sort, need author, organization, or key in url-virushare
Warning--can't use both volume and number fields in flowdroid
You've used 43 entries,
            2785 wiz_defined-function locations,
            771 strings with 11557 characters,
and the built_in function-call counts, 25272 in all, are:
= -- 2079
> -- 976
< -- 29
+ -- 405
- -- 358
* -- 1561
:= -- 3256
add.period$ -- 65
call.type$ -- 43
change.case$ -- 373
chr.to.int$ -- 0
cite$ -- 49
duplicate$ -- 2166
empty$ -- 2161
format.name$ -- 396
if$ -- 5482
int.to.chr$ -- 0
int.to.str$ -- 43
missing$ -- 469
newline$ -- 134
num.names$ -- 76
pop$ -- 993
preamble$ -- 1
purify$ -- 264
quote$ -- 0
skip$ -- 680
stack$ -- 0
substring$ -- 1248
swap$ -- 1120
text.length$ -- 29
text.prefix$ -- 0
top$ -- 0
type$ -- 172
warning$ -- 6
while$ -- 186
width$ -- 45
write$ -- 407
(There were 6 warnings)
